…
``` r
litters_df = janitor::clean_names(litters_df)
names(litters_df)
```

    ## [1] "group"           "litter_number"   "gd0_weight"      "gd18_weight"    
    ## [5] "gd_of_birth"     "pups_born_alive" "pups_dead_birth" "pups_survive"

## Look at the dataset

``` r
litters_df
```

    ## # A tibble: 49 × 8
    ##    group litter_number   gd0_weight gd18_weight gd_of_birth pups_born_alive
    ##    <chr> <chr>           <chr>      <chr>             <dbl>           <dbl>
    ##  1 Con7  #85             19.7       34.7                 20               3
    ##  2 Con7  #1/2/95/2       27         42                   19               8
    ##  3 Con7  #5/5/3/83/3-3   26         41.4                 19               6
    ##  4 Con7  #5/4/2/95/2     28.5       44.1                 19               5
    ##  5 Con7  #4/2/95/3-3     <NA>       <NA>                 20               6
    ##  6 Con7  #2/2/95/3-2     <NA>       <NA>                 20               6
    ##  7 Con7  #1/5/3/83/3-3/2 <NA>       <NA>                 20               9
    ##  8 Con8  #3/83/3-3       <NA>       <NA>                 20               9
    ##  9 Con8  #2/95/3         <NA>       <NA>                 20               8
    ## 10 Con8  #3/5/2/2/95     28.5       <NA>                 20               8
    ## # ℹ 39 more rows
    ## # ℹ 2 more variables: pups_dead_birth <dbl>, pups_survive <dbl>
…
    ## Rows: 40 Columns: 8
    ## ── Column specification ────────────────────────────────────────────────────────
    ## Delimiter: ","
    ## chr (4): X1, X2, X3, X4
    ## dbl (4): X5, X6, X7, X8
    ## 
    ## ℹ Use `spec()` to retrieve the full column specification for this data.
    ## ℹ Specify the column types or set `show_col_types = FALSE` to quiet this message.

``` r
litters_df
```

    ## # A tibble: 40 × 8
    ##    X1    X2              X3    X4       X5    X6    X7    X8
    ##    <chr> <chr>           <chr> <chr> <dbl> <dbl> <dbl> <dbl>
    ##  1 Con8  #3/5/2/2/95     28.5  <NA>     20     8     0     8
    ##  2 Con8  #5/4/3/83/3     28    <NA>     19     9     0     8
    ##  3 Con8  #1/6/2/2/95-2   <NA>  <NA>     20     7     0     6
    ##  4 Con8  #3/5/3/83/3-3-2 <NA>  <NA>     20     8     0     8
    ##  5 Con8  #2/2/95/2       <NA>  <NA>     19     5     0     4
    ##  6 Con8  #3/6/2/2/95-3   <NA>  <NA>     20     7     0     7
    ##  7 Mod7  #59             17    33.4     19     8     0     5
    ##  8 Mod7  #103            21.4  42.1     19     9     1     9
    ##  9 Mod7  #1/82/3-2       <NA>  <NA>     19     6     0     6
    ## 10 Mod7  #3/83/3-2       <NA>  <NA>     19     8     0     8
    ## # ℹ 30 more rows
…
    col_types = cols(
      Group = col_character(),
      `Litter Number` = col_character(),
      `GD0 weight` = col_double(),
      `GD18 weight` = col_double(),
      `GD of Birth` = col_integer(),
      `Pups born alive` = col_integer(),
      `Pups dead @ birth` = col_integer(),
      `Pups survive` = col_integer()
    )
  )
litters_df
```

    ## # A tibble: 49 × 8
    ##    Group `Litter Number` `GD0 weight` `GD18 weight` `GD of Birth`
    ##    <chr> <chr>                  <dbl>         <dbl>         <int>
    ##  1 Con7  #85                     19.7          34.7            20
    ##  2 Con7  #1/2/95/2               27            42              19
    ##  3 Con7  #5/5/3/83/3-3           26            41.4            19
    ##  4 Con7  #5/4/2/95/2             28.5          44.1            19
    ##  5 Con7  #4/2/95/3-3             NA            NA              20
    ##  6 Con7  #2/2/95/3-2             NA            NA              20
    ##  7 Con7  #1/5/3/83/3-3/2         NA            NA              20
    ##  8 Con8  #3/83/3-3               NA            NA              20
    ##  9 Con8  #2/95/3                 NA            NA              20
    ## 10 Con8  #3/5/2/2/95             28.5          NA              20
    ## # ℹ 39 more rows
    ## # ℹ 3 more variables: `Pups born alive` <int>, `Pups dead @ birth` <int>,
    ## #   `Pups survive` <int>
…
``` r
pups_df = 
    read_csv("./data_import_examples/FAS_pups.csv",
        na = c(".", "NA"), col_types = "fddddd")
pups_df
```

    ## # A tibble: 313 × 6
    ##    `Litter Number`   Sex `PD ears` `PD eyes` `PD pivot` `PD walk`
    ##    <fct>           <dbl>     <dbl>     <dbl>      <dbl>     <dbl>
    ##  1 #85                 1         4        13          7        11
    ##  2 #85                 1         4        13          7        12
    ##  3 #1/2/95/2           1         5        13          7         9
    ##  4 #1/2/95/2           1         5        13          8        10
    ##  5 #5/5/3/83/3-3       1         5        13          8        10
    ##  6 #5/5/3/83/3-3       1         5        14          6         9
    ##  7 #5/4/2/95/2         1        NA        14          5         9
    ##  8 #4/2/95/3-3         1         4        13          6         8
    ##  9 #4/2/95/3-3         1         4        13          7         9
    ## 10 #2/2/95/3-2         1         4        NA          8        10
    ## # ℹ 303 more rows
…
